{
  "type": "service_account",
  "project_id": "portfolio-web-page-259509",
  "private_key_id": "c97c76d89e4549340bd12870ab8c551e13f2d9db",
  "private_key": "-----BEGIN PRIVATE KEY-----\nMIIEvAIBADANBgkqhkiG9w0BAQEFAASCBKYwggSiAgEAAoIBAQC2Wp2cXr8S+Ik3\nYTITYqWoE2gSXctjJy7k9jIm6n5O/vO9KxqFgEwnJDTW8lJ0DKoyd7zXZ8ideHKO\n1+FWI+w+OpxiXNewzQIu7syAd+FfUgcJHejPlk8EyKqCfqUStvN6fKpg37qKLtGp\nWT4hPQe8gFzbwrwjLg3Hc0ULtFPPbfc0ljz1mJJYfwGAvlQUquGqiHWhD4AOvsov\ncnj6KRgTuv+Ayc0CsqdDPVWCLCZWqGyOzC7jb0avhDeIIXfT534MZ3WEowc2km/K\n9hQQuC74Qs12FBhTt/tW96INPNwDaSmNPO4uYM8g3C/3DG93/GQKRBomAXpuM3bJ\nDf2Wu511AgMBAAECggEAA8x69I83uUgyqZPthGBddZUj6aAJFOFz1WK4lD110KT4\nhGQRux67V2RmcmTdaVv7Lq52YWFg2UDxV/7wy4fXi8tSRy1Kc/0tUrd4TKPSrtbp\nXRwBpdNqhX29qZbETxG/HDndHcQDYY4MoZPBmtUn5FojNRPHMg9rS5Cf61jAFzXY\n7XsaDAm/ThRx7wK8XrqpfM629fItdLOXQHnzrKXe0ltKq2cXDmBfztkboqVk5rJ6\nQm2/A8WMZH4Qvv6dtrzNrlXlVq2eG9DZbr10NtqveW9TAILXXRqWqG4Ej6GYMRKt\n6BG8/YBNyVth9lXCHLrgZDqth98aa3+bTAGl0jczQQKBgQDx7rwSLWcM99aBSZz/\nRurMAr72z3Z6rQERbDBizd4+EaRw+Q8VuoiPnhoxk0y/vSnlJK8FHwZTIqaqxnMl\nDUd9wmtBzq5/HyzmZbl1jFsTM3h74LJcZp4hmDuJFpehh+DCIk/Rfyp4730wraKG\ngibq+HlZWJnnH5akdx4GIVffQQKBgQDA9Qd+JsjfRlwWX5nUaWz59ND+D99bMOK3\nlAOR9W/YCylBkTJnIITQNVltk9SQKcKajul3rMWNHU3TD+YppQKlveZTAuPWD89v\nIIj95w92yHALNC+9J8EPyrPZRn8CYp40vjN27SEwDQ5OtDT+qrzW2i6N4j14qVD2\n9RUsUMYlNQKBgD/DlUwRLVzsoVuYBEn/7fhxLNWuHmL84BAwfJw9+DpRug6QhhpK\n/J0lpW+1i//pInajcYGfCLK2qkjOXyC/3DzYFh7VE4art9DNtNC3enWYFkRIF5pk\n7X6bOe3Kx5IqVuGz22ey5YXUUSGYUgKzoQBDFvCmeoHBAJo+Tup8tUVBAoGAAg7a\n/Jp3TAJZGxf78QsK0YOt8vfCXxufX2vhud3PSpOb5gohan4rTHk1MfkArGT1oWZi\n0RbzqHSmjti9kLYk2BW1bi86tN7ITJwhOewL+y1aHJR66d6RrZRw5KFe22yn2VIq\nBFu1HekVvPspEYpKp1P+aR7/ntjXdzrX9fgKlP0CgYAnfwFmuDRIb4XTf7gQ6LYb\nbFjvE0JVnLEVGzHG59nm/yOCxzXhswoTKNyeuQp/ul3vB2+xJMsUUXz9FdlLgHGv\nr3tZEwe1ts1hHuT/soCLm5wcH3Avw63CWhiJH8WxE+M6QzNFnzGdXgOI6leymCUU\nbWiDrA7wcjNiTR333ossgw==\n-----END PRIVATE KEY-----\n",
  "client_email": "deploy-account@portfolio-web-page-259509.iam.gserviceaccount.com",
  "client_id": "111708183527063540753",
  "auth_uri": "https://accounts.google.com/o/oauth2/auth",
  "token_uri": "https://oauth2.googleapis.com/token",
  "auth_provider_x509_cert_url": "https://www.googleapis.com/oauth2/v1/certs",
  "client_x509_cert_url": "https://www.googleapis.com/robot/v1/metadata/x509/deploy-account%40portfolio-web-page-259509.iam.gserviceaccount.com"
}
